<svg xmlns="http://www.w3.org/2000/svg" width="30" height="33" viewBox="0 0 30 33">
  <g id="Icon_feather-lock" data-name="Icon feather-lock" transform="translate(-3 -1.5)">
    <path id="Path_1" data-name="Path 1" d="M7.5,16.5h21a3,3,0,0,1,3,3V30a3,3,0,0,1-3,3H7.5a3,3,0,0,1-3-3V19.5a3,3,0,0,1,3-3Z" fill="none" stroke="#5a5a5a" stroke-linecap="round" stroke-linejoin="round" stroke-width="3"/>
    <path id="Path_2" data-name="Path 2" d="M10.5,16.5v-6a7.5,7.5,0,1,1,15,0v6" fill="none" stroke="#5a5a5a" stroke-linecap="round" stroke-linejoin="round" stroke-width="3"/>
  </g>
</svg>
